// 20220731233822
// https://content.guardianapis.com/search?api-key=db0f505c-2e61-417a-b77b-925796f744d7&page-size=15&order-by=newest&show-fields=trailText,thumbnail,byline,shortUrl

{
  "response": {
    "status": "ok",
    "userTier": "developer",
    "total": 2363122,
    "startIndex": 1,
    "pageSize": 15,
    "currentPage": 1,
    "pages": 157542,
    "orderBy": "newest",
    "results": [
      {
        "id": "australia-news/live/2022/aug/01/australia-politics-live-updates-climate-emissions-economy-health-property-interest-rates-energy-albanese-labor-dutton-coalition-vic-qld-nsw",
        "type": "liveblog",
        "sectionId": "australia-news",
        "sectionName": "Australia news",
        "webPublicationDate": "2022-07-31T22:37:36Z",
        "webTitle": "Australia politics live updates: Greens to introduce climate trigger bill to Senate; Covid enters parliament",
        "webUrl": "https://www.theguardian.com/australia-news/live/2022/aug/01/australia-politics-live-updates-climate-emissions-economy-health-property-interest-rates-energy-albanese-labor-dutton-coalition-vic-qld-nsw",
        "apiUrl": "https://content.guardianapis.com/australia-news/live/2022/aug/01/australia-politics-live-updates-climate-emissions-economy-health-property-interest-rates-energy-albanese-labor-dutton-coalition-vic-qld-nsw",
        "fields": {
          "trailText": "Follow all the day’s news live",
          "byline": "Amy Remeikis",
          "shortUrl": "https://www.theguardian.com/p/mx7kb",
          "thumbnail": "https://media.guim.co.uk/0434749df034b470c8f80b31fca362be512cd5a4/0_365_5472_3283/500.jpg"
        },
        "isHosted": false,
        "pillarId": "pillar/news",
        "pillarName": "News"
      },
      {
        "id": "uk-news/2022/jul/31/football-fans-to-celebrate-womens-euro-win-with-lionesses-in-trafalgar-square",
        "type": "article",
        "sectionId": "uk-news",
        "sectionName": "UK news",
        "webPublicationDate": "2022-07-31T22:00:45Z",
        "webTitle": "Fans to celebrate Women’s Euro win with Lionesses in Trafalgar Square",
        "webUrl": "https://www.theguardian.com/uk-news/2022/jul/31/football-fans-to-celebrate-womens-euro-win-with-lionesses-in-trafalgar-square",
        "apiUrl": "https://content.guardianapis.com/uk-news/2022/jul/31/football-fans-to-celebrate-womens-euro-win-with-lionesses-in-trafalgar-square",
        "fields": {
          "trailText": "Event in London to include a Q&amp;A with the victorious players and their manager, and will also be broadcast",
          "byline": "Gemma McSherry",
          "shortUrl": "https://www.theguardian.com/p/mx7mc",
          "thumbnail": "https://media.guim.co.uk/c964e285b7931a35eb41d393216716f125289909/0_0_5077_3046/500.jpg"
        },
        "isHosted": false,
        "pillarId": "pillar/news",
        "pillarName": "News"
      },
      {
        "id": "football/2022/jul/31/pep-guardiola-backs-manchester-city-to-be-ready-premier-league-defence",
        "type": "article",
        "sectionId": "football",
        "sectionName": "Football",
        "webPublicationDate": "2022-07-31T21:30:05Z",
        "webTitle": "Pep Guardiola backs Manchester City to be ready for Premier League defence",
        "webUrl": "https://www.theguardian.com/football/2022/jul/31/pep-guardiola-backs-manchester-city-to-be-ready-premier-league-defence",
        "apiUrl": "https://content.guardianapis.com/football/2022/jul/31/pep-guardiola-backs-manchester-city-to-be-ready-premier-league-defence",
        "fields": {
          "trailText": "The manager brushed off defeat to Liverpool in the Community Shield and backed his side to respond in the league",
          "byline": "Jamie Jackson",
          "shortUrl": "https://www.theguardian.com/p/mx5eq",
          "thumbnail": "https://media.guim.co.uk/137155b647cc35c73a52416f1dde7454fa62421e/0_107_2300_1380/500.jpg"
        },
        "isHosted": false,
        "pillarId": "pillar/sport",
        "pillarName": "Sport"
      },
      {
        "id": "politics/2022/jul/31/rishi-sunak-pledges-20-tax-cut-by-end-of-decade-in-last-gasp-pitch-to-members",
        "type": "article",
        "sectionId": "politics",
        "sectionName": "Politics",
        "webPublicationDate": "2022-07-31T21:30:05Z",
        "webTitle": "Rishi Sunak pledges 20% tax cut by end of decade in last-gasp pitch to members",
        "webUrl": "https://www.theguardian.com/politics/2022/jul/31/rishi-sunak-pledges-20-tax-cut-by-end-of-decade-in-last-gasp-pitch-to-members",
        "apiUrl": "https://content.guardianapis.com/politics/2022/jul/31/rishi-sunak-pledges-20-tax-cut-by-end-of-decade-in-last-gasp-pitch-to-members",
        "fields": {
          "trailText": "Former chancellor warns party members against ‘fantasy economics’, adding voting for Truss would be ‘self-sabotage’",
          "byline": "Jessica Elgot Chief political correspondent",
          "shortUrl": "https://www.theguardian.com/p/mx6hq",
          "thumbnail": "https://media.guim.co.uk/5ada641916ba361aa8722d0c1d925e03eb297a8b/0_85_8256_4954/500.jpg"
        },
        "isHosted": false,
        "pillarId": "pillar/news",
        "pillarName": "News"
      },
      {
        "id": "tv-and-radio/2022/jul/31/war-and-justice-the-case-of-marine-a-review-compelling-account-of-a-killing-with-a-fatal-flaw",
        "type": "article",
        "sectionId": "tv-and-radio",
        "sectionName": "Television & radio",
        "webPublicationDate": "2022-07-31T21:29:05Z",
        "webTitle": "War and Justice: The Case of Marine A review – compelling account of a killing, with a fatal flaw ",
        "webUrl": "https://www.theguardian.com/tv-and-radio/2022/jul/31/war-and-justice-the-case-of-marine-a-review-compelling-account-of-a-killing-with-a-fatal-flaw",
        "apiUrl": "https://content.guardianapis.com/tv-and-radio/2022/jul/31/war-and-justice-the-case-of-marine-a-review-compelling-account-of-a-killing-with-a-fatal-flaw",
        "fields": {
          "trailText": "Channel 4’s documentary is an engrossing investigation into Royal Marine Al Blackman, who was charged with battlefield manslaughter. But it fails to ask basic questions about the real victim – the man he killed",
          "byline": "Stuart Jeffries",
          "shortUrl": "https://www.theguardian.com/p/mvt5n",
          "thumbnail": "https://media.guim.co.uk/2b40e0b0ed6016e812d05cc07ee6b97532b77c29/227_141_5066_3041/500.jpg"
        },
        "isHosted": false,
        "pillarId": "pillar/arts",
        "pillarName": "Arts"
      },
      {
        "id": "sport/2022/jul/31/adam-peaty-in-historic-loss-in-100m-breaststroke-at-commonwealth-games",
        "type": "article",
        "sectionId": "sport",
        "sectionName": "Sport",
        "webPublicationDate": "2022-07-31T21:09:36Z",
        "webTitle": "Adam Peaty in historic loss in 100m breaststroke at Commonwealth Games",
        "webUrl": "https://www.theguardian.com/sport/2022/jul/31/adam-peaty-in-historic-loss-in-100m-breaststroke-at-commonwealth-games",
        "apiUrl": "https://content.guardianapis.com/sport/2022/jul/31/adam-peaty-in-historic-loss-in-100m-breaststroke-at-commonwealth-games",
        "fields": {
          "trailText": "Adam Peaty tasted defeat for the first time in eight years and finished fourth and he admitted: ‘I had nothing left in the tank with 25m to go’",
          "byline": "Sean Ingle at the Sandwell Aquatics Centre",
          "shortUrl": "https://www.theguardian.com/p/mx7tm",
          "thumbnail": "https://media.guim.co.uk/835f93ff9727c0a1e667af33dd4605d9ed9b0f26/0_132_3966_2381/500.jpg"
        },
        "isHosted": false,
        "pillarId": "pillar/sport",
        "pillarName": "Sport"
      },
      {
        "id": "australia-news/2022/aug/01/morning-mail-property-prices-tumble-alarming-gas-shortfall-emma-mckeon-makes-history",
        "type": "article",
        "sectionId": "australia-news",
        "sectionName": "Australia news",
        "webPublicationDate": "2022-07-31T20:59:24Z",
        "webTitle": "Morning mail: property prices tumble, ‘alarming’ gas shortfall, Emma McKeon makes history",
        "webUrl": "https://www.theguardian.com/australia-news/2022/aug/01/morning-mail-property-prices-tumble-alarming-gas-shortfall-emma-mckeon-makes-history",
        "apiUrl": "https://content.guardianapis.com/australia-news/2022/aug/01/morning-mail-property-prices-tumble-alarming-gas-shortfall-emma-mckeon-makes-history",
        "fields": {
          "trailText": "<strong>Monday:</strong> Five of the country’s eight capitals are reporting house price falls on par with the start of the GFC. Plus: the most ridiculous Australian reality TV shows",
          "byline": "Tamara Howie",
          "shortUrl": "https://www.theguardian.com/p/mx749",
          "thumbnail": "https://media.guim.co.uk/7df53269a9e5d1cb17191139e6febafe01110bc1/0_20_4300_2580/500.jpg"
        },
        "isHosted": false,
        "pillarId": "pillar/news",
        "pillarName": "News"
      },
      {
        "id": "australia-news/2022/aug/01/australian-property-prices-tumble-at-rates-not-seen-since-gfc",
        "type": "article",
        "sectionId": "australia-news",
        "sectionName": "Australia news",
        "webPublicationDate": "2022-07-31T20:50:49Z",
        "webTitle": "Australian property prices tumble at rates not seen since GFC",
        "webUrl": "https://www.theguardian.com/australia-news/2022/aug/01/australian-property-prices-tumble-at-rates-not-seen-since-gfc",
        "apiUrl": "https://content.guardianapis.com/australia-news/2022/aug/01/australian-property-prices-tumble-at-rates-not-seen-since-gfc",
        "fields": {
          "trailText": "Interest rate rises lead to dwelling values falling for third month in a row with Sydney prices down 5.2% since January",
          "byline": "Peter Hannam Economics correspondent",
          "shortUrl": "https://www.theguardian.com/p/mx438",
          "thumbnail": "https://media.guim.co.uk/3f4c8307a3cb4190be017642bb88cf44b888f6da/0_0_8192_4915/500.jpg"
        },
        "isHosted": false,
        "pillarId": "pillar/news",
        "pillarName": "News"
      },
      {
        "id": "football/blog/2022/jul/31/alexandra-popps-warmup-woes-rob-her-of-fairytale-finish-with-germany",
        "type": "article",
        "sectionId": "football",
        "sectionName": "Football",
        "webPublicationDate": "2022-07-31T20:45:12Z",
        "webTitle": "Alexandra Popp’s warmup woes rob her of fairytale finish with Germany | Nick Ames",
        "webUrl": "https://www.theguardian.com/football/blog/2022/jul/31/alexandra-popps-warmup-woes-rob-her-of-fairytale-finish-with-germany",
        "apiUrl": "https://content.guardianapis.com/football/blog/2022/jul/31/alexandra-popps-warmup-woes-rob-her-of-fairytale-finish-with-germany",
        "fields": {
          "trailText": "Injury shortly before kick-off denied the tournament’s best finisher the ending she had craved for an entire career",
          "byline": "Nick Ames at Wembley",
          "shortUrl": "https://www.theguardian.com/p/mx6av",
          "thumbnail": "https://media.guim.co.uk/e51061f7e58bf5922cf38953e3ee6be1dd6eb38b/0_188_5212_3127/500.jpg"
        },
        "isHosted": false,
        "pillarId": "pillar/sport",
        "pillarName": "Sport"
      },
      {
        "id": "football/2022/jul/31/sarina-wiegman-it-was-so-tight-but-who-cares-we-are-european-champions",
        "type": "article",
        "sectionId": "football",
        "sectionName": "Football",
        "webPublicationDate": "2022-07-31T20:36:18Z",
        "webTitle": "Sarina Wiegman: ‘It was so tight but who cares? We are European champions’",
        "webUrl": "https://www.theguardian.com/football/2022/jul/31/sarina-wiegman-it-was-so-tight-but-who-cares-we-are-european-champions",
        "apiUrl": "https://content.guardianapis.com/football/2022/jul/31/sarina-wiegman-it-was-so-tight-but-who-cares-we-are-european-champions",
        "fields": {
          "trailText": "Sarina Wiegman said her England team’s feat was unbelievable after their 2-1 win over Germany in the final of Euro 2022",
          "byline": "Sophie Downey at Wembley",
          "shortUrl": "https://www.theguardian.com/p/mx687",
          "thumbnail": "https://media.guim.co.uk/5fc4d26d51a0901505d3aa6960c61e837ed91d8c/0_0_4931_2960/500.jpg"
        },
        "isHosted": false,
        "pillarId": "pillar/sport",
        "pillarName": "Sport"
      },
      {
        "id": "football/blog/2022/jul/31/england-win-germany-euro-2022-only-beginning-for-women-game",
        "type": "article",
        "sectionId": "football",
        "sectionName": "Football",
        "webPublicationDate": "2022-07-31T20:34:08Z",
        "webTitle": "England’s win against Germany is only the beginning for the women’s game | Jonathan Liew",
        "webUrl": "https://www.theguardian.com/football/blog/2022/jul/31/england-win-germany-euro-2022-only-beginning-for-women-game",
        "apiUrl": "https://content.guardianapis.com/football/blog/2022/jul/31/england-win-germany-euro-2022-only-beginning-for-women-game",
        "fields": {
          "trailText": "Football was an intrinsic part of the nation’s identity for years while women were excluded. After winning Euro 2022, they have reached the top of the podium",
          "byline": "Jonathan Liew at Wembley",
          "shortUrl": "https://www.theguardian.com/p/mx7d9",
          "thumbnail": "https://media.guim.co.uk/3d48bda19277fcca171b86e505146b3304e1d205/0_208_3156_1893/500.jpg"
        },
        "isHosted": false,
        "pillarId": "pillar/sport",
        "pillarName": "Sport"
      },
      {
        "id": "culture/2022/jul/31/nichelle-nichols-lt-uhura-star-trek-dies",
        "type": "article",
        "sectionId": "culture",
        "sectionName": "Culture",
        "webPublicationDate": "2022-07-31T20:31:19Z",
        "webTitle": "Nichelle Nichols, who played Lt Uhura in original Star Trek, dies aged 89",
        "webUrl": "https://www.theguardian.com/culture/2022/jul/31/nichelle-nichols-lt-uhura-star-trek-dies",
        "apiUrl": "https://content.guardianapis.com/culture/2022/jul/31/nichelle-nichols-lt-uhura-star-trek-dies",
        "fields": {
          "trailText": "Actor achieved worldwide fame and broke ground for Black women while playing Nyota Uhura in the original TV hit",
          "byline": "Joanna Walters and Maya Yang and agencies",
          "shortUrl": "https://www.theguardian.com/p/mx7cd",
          "thumbnail": "https://media.guim.co.uk/91a2ac158eaf0ea0f972a5f2cdc1fa6e85daeb57/0_225_3000_1800/500.jpg"
        },
        "isHosted": false,
        "pillarId": "pillar/arts",
        "pillarName": "Arts"
      },
      {
        "id": "football/2022/jul/31/queen-joins-sport-stars-and-politicians-to-share-joy-of-lionesses-euro-2022-win",
        "type": "article",
        "sectionId": "football",
        "sectionName": "Football",
        "webPublicationDate": "2022-07-31T20:22:31Z",
        "webTitle": "Queen joins sport stars and celebrities to share joy of Lionesses’ Euro 2022 win",
        "webUrl": "https://www.theguardian.com/football/2022/jul/31/queen-joins-sport-stars-and-politicians-to-share-joy-of-lionesses-euro-2022-win",
        "apiUrl": "https://content.guardianapis.com/football/2022/jul/31/queen-joins-sport-stars-and-politicians-to-share-joy-of-lionesses-euro-2022-win",
        "fields": {
          "trailText": "England women’s team’s 2-1 victory over Germany at Wembley widely celebrated as a historic achievement",
          "byline": "Gemma McSherry",
          "shortUrl": "https://www.theguardian.com/p/mx79j",
          "thumbnail": "https://media.guim.co.uk/06dff54977afa3b8eccafe3991f3ff228852b997/0_0_3568_2142/500.jpg"
        },
        "isHosted": false,
        "pillarId": "pillar/sport",
        "pillarName": "Sport"
      },
      {
        "id": "football/live/2022/jul/31/england-v-germany-womens-euro-2022-final-live",
        "type": "liveblog",
        "sectionId": "football",
        "sectionName": "Football",
        "webPublicationDate": "2022-07-31T20:04:42Z",
        "webTitle": "England 2-1 Germany (aet): Women’s Euro 2022 final – as it happened",
        "webUrl": "https://www.theguardian.com/football/live/2022/jul/31/england-v-germany-womens-euro-2022-final-live",
        "apiUrl": "https://content.guardianapis.com/football/live/2022/jul/31/england-v-germany-womens-euro-2022-final-live",
        "fields": {
          "trailText": "Chloe Kelly toe-poked the winner, and her first international goal, in extra time at Wembley to guide England to their first ever European Championship",
          "byline": "Sarah Rendell",
          "shortUrl": "https://www.theguardian.com/p/mxxe8",
          "thumbnail": "https://media.guim.co.uk/63f8d10969be5cb2667d0345bf2de1a6d087ad6e/176_369_3305_1983/500.jpg"
        },
        "isHosted": false,
        "pillarId": "pillar/sport",
        "pillarName": "Sport"
      },
      {
        "id": "sport/live/2022/jul/31/commonwealth-games-2022-cycling-gymnastics-and-swimming-on-day-three-live",
        "type": "liveblog",
        "sectionId": "sport",
        "sectionName": "Sport",
        "webPublicationDate": "2022-07-31T20:04:34Z",
        "webTitle": "Commonwealth Games 2022: cycling crash mars day three action – as it happened",
        "webUrl": "https://www.theguardian.com/sport/live/2022/jul/31/commonwealth-games-2022-cycling-gymnastics-and-swimming-on-day-three-live",
        "apiUrl": "https://content.guardianapis.com/sport/live/2022/jul/31/commonwealth-games-2022-cycling-gymnastics-and-swimming-on-day-three-live",
        "fields": {
          "trailText": "Matt Walls’ dramatic crash in the velodrome overshadowed the day but he is thankfully fine",
          "byline": "Luke McLaughlin  and Rob Bleaney (earlier), Will Unwin (now)",
          "shortUrl": "https://www.theguardian.com/p/mxxdz",
          "thumbnail": "https://media.guim.co.uk/72668c58fdbea0cd532db9f4dc86688af2dba582/0_0_3339_2004/500.jpg"
        },
        "isHosted": false,
        "pillarId": "pillar/sport",
        "pillarName": "Sport"
      }
    ]
  }
}